[2016-10-03 20:29:47.023] [INFO] middleware - Se actualizó el contador con id: empleados
[2016-10-03 20:47:17.338] [ERROR] middleware - Error al añadir el empleado con id: undefined el error es:
[2016-10-03 20:47:17.341] [ERROR] middleware - [Error: document must have an _id before saving]
Error: document must have an _id before saving
    at null._onTimeout (/home/gaby/Desktop/BDD/Repositorio/bbdd2016/node_modules/mongoose/lib/model.js:120:18)
    at Timer.listOnTimeout [as ontimeout] (timers.js:112:15)
[2016-10-03 20:49:09.135] [ERROR] middleware - Error al añadir el empleado con id: undefined el error es:
[2016-10-03 20:49:09.140] [ERROR] middleware - [Error: document must have an _id before saving]
Error: document must have an _id before saving
    at null._onTimeout (/home/gaby/Desktop/BDD/Repositorio/bbdd2016/node_modules/mongoose/lib/model.js:120:18)
    at Timer.listOnTimeout [as ontimeout] (timers.js:112:15)
[2016-10-03 20:49:43.262] [ERROR] middleware - Error al añadir el empleado con id: undefined el error es:
[2016-10-03 20:49:43.264] [ERROR] middleware - [Error: document must have an _id before saving]
Error: document must have an _id before saving
    at null._onTimeout (/home/gaby/Desktop/BDD/Repositorio/bbdd2016/node_modules/mongoose/lib/model.js:120:18)
    at Timer.listOnTimeout [as ontimeout] (timers.js:112:15)
[2016-10-04 10:33:45.102] [INFO] middleware - Empleado añadido con éxito
[2016-10-04 12:49:29.878] [ERROR] middleware - Error al buscar un empleado con id: join=y el error es:
[2016-10-04 12:49:29.885] [ERROR] middleware - { [CastError: Cast to number failed for value "join=y" at path "_id"]
  message: 'Cast to number failed for value "join=y" at path "_id"',
  name: 'CastError',
  kind: 'number',
  value: 'join=y',
  path: '_id',
  reason: undefined }
CastError: Cast to number failed for value "join=y" at path "_id"
    at MongooseError.CastError (/home/gaby/Desktop/BDD/Repositorio/bbdd2016/node_modules/mongoose/lib/error/cast.js:26:11)
    at SchemaNumber.cast (/home/gaby/Desktop/BDD/Repositorio/bbdd2016/node_modules/mongoose/lib/schema/number.js:231:9)
    at SchemaNumber.castForQuery (/home/gaby/Desktop/BDD/Repositorio/bbdd2016/node_modules/mongoose/lib/schema/number.js:282:14)
    at cast (/home/gaby/Desktop/BDD/Repositorio/bbdd2016/node_modules/mongoose/lib/cast.js:213:32)
    at Query.cast (/home/gaby/Desktop/BDD/Repositorio/bbdd2016/node_modules/mongoose/lib/query.js:2664:10)
    at Query.findOne (/home/gaby/Desktop/BDD/Repositorio/bbdd2016/node_modules/mongoose/lib/query.js:1284:10)
    at Function.findOne (/home/gaby/Desktop/BDD/Repositorio/bbdd2016/node_modules/mongoose/lib/model.js:1320:13)
    at exports.getEmpleado (/home/gaby/Desktop/BDD/Repositorio/bbdd2016/controllers/empleadoController.js:59:11)
    at Layer.handle [as handle_request] (/home/gaby/Desktop/BDD/Repositorio/bbdd2016/node_modules/express/lib/router/layer.js:95:5)
    at next (/home/gaby/Desktop/BDD/Repositorio/bbdd2016/node_modules/express/lib/router/route.js:131:13)
    at Route.dispatch (/home/gaby/Desktop/BDD/Repositorio/bbdd2016/node_modules/express/lib/router/route.js:112:3)
    at Layer.handle [as handle_request] (/home/gaby/Desktop/BDD/Repositorio/bbdd2016/node_modules/express/lib/router/layer.js:95:5)
    at /home/gaby/Desktop/BDD/Repositorio/bbdd2016/node_modules/express/lib/router/index.js:277:22
    at param (/home/gaby/Desktop/BDD/Repositorio/bbdd2016/node_modules/express/lib/router/index.js:349:14)
    at param (/home/gaby/Desktop/BDD/Repositorio/bbdd2016/node_modules/express/lib/router/index.js:365:14)
    at Function.process_params (/home/gaby/Desktop/BDD/Repositorio/bbdd2016/node_modules/express/lib/router/index.js:410:3)
[2016-10-04 12:49:38.519] [INFO] middleware - JOIN
[2016-10-04 13:32:34.244] [INFO] middleware - El empleado: 10 fue eliminado exitosamente
[2016-10-04 13:32:44.139] [INFO] middleware - El empleado: 2 fue eliminado exitosamente
[2016-10-04 13:51:19.682] [INFO] middleware - Empleado añadido con éxito
[2016-10-04 13:51:25.614] [INFO] middleware - Empleado añadido con éxito
[2016-10-04 13:51:31.749] [INFO] middleware - Empleado añadido con éxito
[2016-10-04 13:52:06.705] [INFO] middleware - El empleado: 2 fue eliminado exitosamente
[2016-10-04 13:52:12.458] [INFO] middleware - Empleado añadido con éxito
[2016-10-04 13:52:15.250] [ERROR] middleware - Error al buscar un empleado con id: hola el error es:
[2016-10-04 13:52:15.253] [ERROR] middleware - { [CastError: Cast to number failed for value "hola" at path "_id"]
  message: 'Cast to number failed for value "hola" at path "_id"',
  name: 'CastError',
  kind: 'number',
  value: 'hola',
  path: '_id',
  reason: undefined }
CastError: Cast to number failed for value "hola" at path "_id"
    at MongooseError.CastError (/home/gaby/Desktop/BDD/Repositorio/bbdd2016/node_modules/mongoose/lib/error/cast.js:26:11)
    at SchemaNumber.cast (/home/gaby/Desktop/BDD/Repositorio/bbdd2016/node_modules/mongoose/lib/schema/number.js:231:9)
    at SchemaNumber.castForQuery (/home/gaby/Desktop/BDD/Repositorio/bbdd2016/node_modules/mongoose/lib/schema/number.js:282:14)
    at cast (/home/gaby/Desktop/BDD/Repositorio/bbdd2016/node_modules/mongoose/lib/cast.js:213:32)
    at Query.cast (/home/gaby/Desktop/BDD/Repositorio/bbdd2016/node_modules/mongoose/lib/query.js:2664:10)
    at Query.findOne (/home/gaby/Desktop/BDD/Repositorio/bbdd2016/node_modules/mongoose/lib/query.js:1284:10)
    at Function.findOne (/home/gaby/Desktop/BDD/Repositorio/bbdd2016/node_modules/mongoose/lib/model.js:1320:13)
    at exports.getEmpleado (/home/gaby/Desktop/BDD/Repositorio/bbdd2016/controllers/empleadoController.js:73:11)
    at Layer.handle [as handle_request] (/home/gaby/Desktop/BDD/Repositorio/bbdd2016/node_modules/express/lib/router/layer.js:95:5)
    at next (/home/gaby/Desktop/BDD/Repositorio/bbdd2016/node_modules/express/lib/router/route.js:131:13)
    at Route.dispatch (/home/gaby/Desktop/BDD/Repositorio/bbdd2016/node_modules/express/lib/router/route.js:112:3)
    at Layer.handle [as handle_request] (/home/gaby/Desktop/BDD/Repositorio/bbdd2016/node_modules/express/lib/router/layer.js:95:5)
    at /home/gaby/Desktop/BDD/Repositorio/bbdd2016/node_modules/express/lib/router/index.js:277:22
    at param (/home/gaby/Desktop/BDD/Repositorio/bbdd2016/node_modules/express/lib/router/index.js:349:14)
    at param (/home/gaby/Desktop/BDD/Repositorio/bbdd2016/node_modules/express/lib/router/index.js:365:14)
    at Function.process_params (/home/gaby/Desktop/BDD/Repositorio/bbdd2016/node_modules/express/lib/router/index.js:410:3)
[2016-10-04 14:04:47.141] [INFO] middleware - Empleado añadido con éxito
[2016-10-04 14:07:23.567] [INFO] middleware - El empleado: 4 fue eliminado exitosamente
[2016-10-04 14:21:14.273] [INFO] middleware - Se actualizó el empleado con id: 3
[2016-10-04 14:22:08.290] [INFO] middleware - Empleado añadido con éxito
[2016-10-04 14:50:09.935] [INFO] middleware - Paga añadida con éxito
[2016-10-04 14:50:20.370] [ERROR] middleware - Error al añadir Paga con clave: nuevo el error es:
[2016-10-04 14:50:20.373] [ERROR] middleware - { [MongoError: E11000 duplicate key error index: api_dev.pagas.$_id_  dup key: { : "nuevo" }]
  name: 'MongoError',
  message: 'E11000 duplicate key error index: api_dev.pagas.$_id_  dup key: { : "nuevo" }',
  driver: true,
  code: 11000,
  index: 0,
  errmsg: 'E11000 duplicate key error index: api_dev.pagas.$_id_  dup key: { : "nuevo" }',
  getOperation: [Function],
  toJSON: [Function],
  toString: [Function] }
WriteError({"code":11000,"index":0,"errmsg":"E11000 duplicate key error index: api_dev.pagas.$_id_  dup key: { : \"nuevo\" }","op":{"salario":200,"_id":"nuevo","__v":0}})
    at Function.MongoError.create (/home/gaby/Desktop/BDD/Repositorio/bbdd2016/node_modules/mongoose/node_modules/mongodb/node_modules/mongodb-core/lib/error.js:31:11)
    at toError (/home/gaby/Desktop/BDD/Repositorio/bbdd2016/node_modules/mongoose/node_modules/mongodb/lib/utils.js:114:22)
    at /home/gaby/Desktop/BDD/Repositorio/bbdd2016/node_modules/mongoose/node_modules/mongodb/lib/collection.js:620:23
    at handleCallback (/home/gaby/Desktop/BDD/Repositorio/bbdd2016/node_modules/mongoose/node_modules/mongodb/lib/utils.js:96:12)
    at /home/gaby/Desktop/BDD/Repositorio/bbdd2016/node_modules/mongoose/node_modules/mongodb/lib/bulk/unordered.js:473:9
    at handleCallback (/home/gaby/Desktop/BDD/Repositorio/bbdd2016/node_modules/mongoose/node_modules/mongodb/lib/utils.js:96:12)
    at resultHandler (/home/gaby/Desktop/BDD/Repositorio/bbdd2016/node_modules/mongoose/node_modules/mongodb/lib/bulk/unordered.js:420:5)
    at /home/gaby/Desktop/BDD/Repositorio/bbdd2016/node_modules/mongoose/node_modules/mongodb/node_modules/mongodb-core/lib/wireprotocol/2_4_support.js:544:17
    at process._tickCallback (node.js:448:13)
[2016-10-04 14:51:39.967] [ERROR] middleware - Error al añadir Paga:
[2016-10-04 14:51:39.982] [ERROR] middleware - { [MongoError: E11000 duplicate key error index: api_dev.pagas.$_id_  dup key: { : "nuevo" }]
  name: 'MongoError',
  message: 'E11000 duplicate key error index: api_dev.pagas.$_id_  dup key: { : "nuevo" }',
  driver: true,
  code: 11000,
  index: 0,
  errmsg: 'E11000 duplicate key error index: api_dev.pagas.$_id_  dup key: { : "nuevo" }',
  getOperation: [Function],
  toJSON: [Function],
  toString: [Function] }
WriteError({"code":11000,"index":0,"errmsg":"E11000 duplicate key error index: api_dev.pagas.$_id_  dup key: { : \"nuevo\" }","op":{"salario":200,"_id":"nuevo","__v":0}})
    at Function.MongoError.create (/home/gaby/Desktop/BDD/Repositorio/bbdd2016/node_modules/mongoose/node_modules/mongodb/node_modules/mongodb-core/lib/error.js:31:11)
    at toError (/home/gaby/Desktop/BDD/Repositorio/bbdd2016/node_modules/mongoose/node_modules/mongodb/lib/utils.js:114:22)
    at /home/gaby/Desktop/BDD/Repositorio/bbdd2016/node_modules/mongoose/node_modules/mongodb/lib/collection.js:620:23
    at handleCallback (/home/gaby/Desktop/BDD/Repositorio/bbdd2016/node_modules/mongoose/node_modules/mongodb/lib/utils.js:96:12)
    at /home/gaby/Desktop/BDD/Repositorio/bbdd2016/node_modules/mongoose/node_modules/mongodb/lib/bulk/unordered.js:473:9
    at handleCallback (/home/gaby/Desktop/BDD/Repositorio/bbdd2016/node_modules/mongoose/node_modules/mongodb/lib/utils.js:96:12)
    at resultHandler (/home/gaby/Desktop/BDD/Repositorio/bbdd2016/node_modules/mongoose/node_modules/mongodb/lib/bulk/unordered.js:420:5)
    at /home/gaby/Desktop/BDD/Repositorio/bbdd2016/node_modules/mongoose/node_modules/mongodb/node_modules/mongodb-core/lib/wireprotocol/2_4_support.js:544:17
    at process._tickCallback (node.js:448:13)
[2016-10-04 14:54:54.087] [INFO] middleware - La Paga: nuevo fue eliminada exitosamente
[2016-10-04 14:56:00.238] [INFO] middleware - La Paga con id: 6, fue eliminada exitosamente
[2016-10-04 14:56:28.898] [INFO] middleware - La Paga con id: 0, fue eliminada exitosamente
[2016-10-04 15:03:05.120] [INFO] middleware - Paga añadida con éxito
[2016-10-04 15:06:22.479] [INFO] middleware - Se actualizó la paga con id: nuevo
[2016-10-04 15:15:22.335] [INFO] middleware - Se actualizó la paga con id: nuevo
[2016-10-04 15:34:16.053] [INFO] middleware - Proyecto añadido con éxito
[2016-10-04 18:36:09.075] [INFO] middleware - Proyecto añadido con éxito
[2016-10-04 18:52:36.563] [INFO] middleware - Se actualizó el proyecto con id: 0
[2016-10-04 19:00:09.438] [INFO] middleware - El proyecto: 0 fue eliminado exitosamente
[2016-10-04 19:01:52.839] [INFO] middleware - El proyecto: 0 fue eliminado exitosamente
[2016-10-04 19:04:20.425] [INFO] middleware - El proyecto: 0 fue eliminado exitosamente
[2016-10-04 19:04:26.288] [INFO] middleware - El proyecto: 0 fue eliminado exitosamente
[2016-10-04 19:05:10.807] [INFO] middleware - El proyecto: 0 fue eliminado exitosamente
[2016-10-04 19:05:11.999] [INFO] middleware - El proyecto: 0 fue eliminado exitosamente
[2016-10-04 19:06:18.195] [INFO] middleware - preoyect{"ok":1,"n":0}
[2016-10-04 19:06:18.204] [INFO] middleware - El proyecto: 0 fue eliminado exitosamente
[2016-10-04 19:06:55.568] [INFO] middleware - preoyect{"ok":1,"n":0}
[2016-10-04 19:06:55.571] [INFO] middleware - El proyecto: 5 fue eliminado exitosamente
[2016-10-04 19:06:56.690] [INFO] middleware - preoyect{"ok":1,"n":0}
[2016-10-04 19:06:56.691] [INFO] middleware - El proyecto: 5 fue eliminado exitosamente
[2016-10-04 19:07:46.200] [INFO] middleware - El proyecto: 5 fue eliminado exitosamente
[2016-10-04 19:10:48.090] [INFO] middleware - El proyecto: 1 fue eliminado exitosamente
[2016-10-12 09:54:29.357] [ERROR] middleware - Error al añadir el proyecto, el error es:
[2016-10-12 09:54:29.359] [ERROR] middleware - { [ValidationError: Proyecto validation failed]
  message: 'Proyecto validation failed',
  name: 'ValidationError',
  errors: 
   { presupuesto: 
      { [CastError: Cast to Number failed for value "salario" at path "presupuesto"]
        message: 'Cast to Number failed for value "salario" at path "presupuesto"',
        name: 'CastError',
        kind: 'Number',
        value: 'salario',
        path: 'presupuesto',
        reason: [Object] } } }
ValidationError: CastError: Cast to Number failed for value "salario" at path "presupuesto"
    at MongooseError.ValidationError (/home/gaby/Desktop/BDD/Repositorio/bbdd2016/node_modules/mongoose/lib/error/validation.js:22:11)
    at model.Document.invalidate (/home/gaby/Desktop/BDD/Repositorio/bbdd2016/node_modules/mongoose/lib/document.js:1410:32)
    at model.Document.set (/home/gaby/Desktop/BDD/Repositorio/bbdd2016/node_modules/mongoose/lib/document.js:703:10)
    at model.Object.defineProperty.set [as presupuesto] (/home/gaby/Desktop/BDD/Repositorio/bbdd2016/node_modules/mongoose/lib/document.js:1712:25)
    at exports.createProyecto (/home/gaby/Desktop/BDD/Repositorio/bbdd2016/controllers/proyectoController.js:54:26)
    at Layer.handle [as handle_request] (/home/gaby/Desktop/BDD/Repositorio/bbdd2016/node_modules/express/lib/router/layer.js:95:5)
    at next (/home/gaby/Desktop/BDD/Repositorio/bbdd2016/node_modules/express/lib/router/route.js:131:13)
    at Route.dispatch (/home/gaby/Desktop/BDD/Repositorio/bbdd2016/node_modules/express/lib/router/route.js:112:3)
    at Layer.handle [as handle_request] (/home/gaby/Desktop/BDD/Repositorio/bbdd2016/node_modules/express/lib/router/layer.js:95:5)
    at /home/gaby/Desktop/BDD/Repositorio/bbdd2016/node_modules/express/lib/router/index.js:277:22
    at param (/home/gaby/Desktop/BDD/Repositorio/bbdd2016/node_modules/express/lib/router/index.js:349:14)
    at param (/home/gaby/Desktop/BDD/Repositorio/bbdd2016/node_modules/express/lib/router/index.js:365:14)
    at param (/home/gaby/Desktop/BDD/Repositorio/bbdd2016/node_modules/express/lib/router/index.js:365:14)
    at Function.process_params (/home/gaby/Desktop/BDD/Repositorio/bbdd2016/node_modules/express/lib/router/index.js:410:3)
    at next (/home/gaby/Desktop/BDD/Repositorio/bbdd2016/node_modules/express/lib/router/index.js:271:10)
    at Function.handle (/home/gaby/Desktop/BDD/Repositorio/bbdd2016/node_modules/express/lib/router/index.js:176:3)
[2016-10-12 10:18:04.912] [INFO] middleware - Proyecto añadido con éxito
[2016-10-12 10:51:22.169] [INFO] middleware - Asignacion añadida con éxito
[2016-10-12 10:51:47.332] [ERROR] middleware - Error al añadir la asignacion; el error es:
[2016-10-12 10:51:47.334] [ERROR] middleware - { [MongoError: E11000 duplicate key error index: api_dev.asignacions.$empleado_1_proyecto_1  dup key: { : 1, : 2 }]
  name: 'MongoError',
  message: 'E11000 duplicate key error index: api_dev.asignacions.$empleado_1_proyecto_1  dup key: { : 1, : 2 }',
  driver: true,
  code: 11000,
  index: 0,
  errmsg: 'E11000 duplicate key error index: api_dev.asignacions.$empleado_1_proyecto_1  dup key: { : 1, : 2 }',
  getOperation: [Function],
  toJSON: [Function],
  toString: [Function] }
WriteError({"code":11000,"index":0,"errmsg":"E11000 duplicate key error index: api_dev.asignacions.$empleado_1_proyecto_1  dup key: { : 1, : 2 }","op":{"_id":1,"proyecto":2,"empleado":1,"__v":0}})
    at Function.MongoError.create (/home/gaby/Desktop/BDD/Repositorio/bbdd2016/node_modules/mongoose/node_modules/mongodb/node_modules/mongodb-core/lib/error.js:31:11)
    at toError (/home/gaby/Desktop/BDD/Repositorio/bbdd2016/node_modules/mongoose/node_modules/mongodb/lib/utils.js:114:22)
    at /home/gaby/Desktop/BDD/Repositorio/bbdd2016/node_modules/mongoose/node_modules/mongodb/lib/collection.js:620:23
    at handleCallback (/home/gaby/Desktop/BDD/Repositorio/bbdd2016/node_modules/mongoose/node_modules/mongodb/lib/utils.js:96:12)
    at /home/gaby/Desktop/BDD/Repositorio/bbdd2016/node_modules/mongoose/node_modules/mongodb/lib/bulk/unordered.js:473:9
    at handleCallback (/home/gaby/Desktop/BDD/Repositorio/bbdd2016/node_modules/mongoose/node_modules/mongodb/lib/utils.js:96:12)
    at resultHandler (/home/gaby/Desktop/BDD/Repositorio/bbdd2016/node_modules/mongoose/node_modules/mongodb/lib/bulk/unordered.js:420:5)
    at /home/gaby/Desktop/BDD/Repositorio/bbdd2016/node_modules/mongoose/node_modules/mongodb/node_modules/mongodb-core/lib/wireprotocol/2_4_support.js:544:17
    at process._tickCallback (node.js:448:13)
[2016-10-12 10:53:17.262] [INFO] middleware - Proyecto añadido con éxito
[2016-10-12 10:59:08.084] [INFO] middleware - Asignacion añadida con éxito
[2016-10-12 10:59:15.983] [ERROR] middleware - Error al añadir la asignacion; el error es:
[2016-10-12 10:59:15.986] [ERROR] middleware - { [MongoError: E11000 duplicate key error index: api_dev.asignacions.$empleado_1_proyecto_1  dup key: { : 1, : 3 }]
  name: 'MongoError',
  message: 'E11000 duplicate key error index: api_dev.asignacions.$empleado_1_proyecto_1  dup key: { : 1, : 3 }',
  driver: true,
  code: 11000,
  index: 0,
  errmsg: 'E11000 duplicate key error index: api_dev.asignacions.$empleado_1_proyecto_1  dup key: { : 1, : 3 }',
  getOperation: [Function],
  toJSON: [Function],
  toString: [Function] }
WriteError({"code":11000,"index":0,"errmsg":"E11000 duplicate key error index: api_dev.asignacions.$empleado_1_proyecto_1  dup key: { : 1, : 3 }","op":{"_id":3,"proyecto":3,"empleado":1,"__v":0}})
    at Function.MongoError.create (/home/gaby/Desktop/BDD/Repositorio/bbdd2016/node_modules/mongoose/node_modules/mongodb/node_modules/mongodb-core/lib/error.js:31:11)
    at toError (/home/gaby/Desktop/BDD/Repositorio/bbdd2016/node_modules/mongoose/node_modules/mongodb/lib/utils.js:114:22)
    at /home/gaby/Desktop/BDD/Repositorio/bbdd2016/node_modules/mongoose/node_modules/mongodb/lib/collection.js:620:23
    at handleCallback (/home/gaby/Desktop/BDD/Repositorio/bbdd2016/node_modules/mongoose/node_modules/mongodb/lib/utils.js:96:12)
    at /home/gaby/Desktop/BDD/Repositorio/bbdd2016/node_modules/mongoose/node_modules/mongodb/lib/bulk/unordered.js:473:9
    at handleCallback (/home/gaby/Desktop/BDD/Repositorio/bbdd2016/node_modules/mongoose/node_modules/mongodb/lib/utils.js:96:12)
    at resultHandler (/home/gaby/Desktop/BDD/Repositorio/bbdd2016/node_modules/mongoose/node_modules/mongodb/lib/bulk/unordered.js:420:5)
    at /home/gaby/Desktop/BDD/Repositorio/bbdd2016/node_modules/mongoose/node_modules/mongodb/node_modules/mongodb-core/lib/wireprotocol/2_4_support.js:544:17
    at process._tickCallback (node.js:448:13)
[2016-10-12 12:07:21.666] [INFO] middleware - La asignacion: 0 fue eliminada exitosamente
[2016-10-12 12:07:26.514] [INFO] middleware - La asignacion: 5 fue eliminada exitosamente
[2016-10-12 12:07:28.042] [INFO] middleware - La asignacion: 5 fue eliminada exitosamente
[2016-10-12 12:10:18.498] [INFO] middleware - La asignacion: 5 fue eliminada exitosamente
[2016-10-12 12:14:11.613] [INFO] middleware - La asignacion: 5 fue eliminada exitosamente
[2016-10-12 12:15:10.197] [INFO] middleware - La asignacion: 5 fue eliminada exitosamente
[2016-10-12 12:15:32.829] [INFO] middleware - La asignacion: 5 fue eliminada exitosamente
[2016-10-12 12:22:37.948] [INFO] middleware - La aplicación: 57f2ab5547c7d7ac159c1685 fue eliminada exitosamente
[2016-10-12 12:29:28.912] [INFO] middleware - La asignacion: 2 fue eliminada exitosamente
[2016-10-12 12:29:31.978] [INFO] middleware - La asignacion: 2 fue eliminada exitosamente
[2016-10-12 12:29:34.602] [INFO] middleware - La asignacion: 2 fue eliminada exitosamente
[2016-10-12 12:29:38.866] [INFO] middleware - La asignacion: 2 fue eliminada exitosamente
