[2016-10-12 12:29:49.369] [INFO] middleware - La asignacion: 2 fue eliminada exitosamente
[2016-10-12 12:31:00.011] [INFO] middleware - La asignacion: 2 fue eliminada exitosamente
[2016-10-12 12:31:01.619] [INFO] middleware - La asignacion: 2 fue eliminada exitosamente
[2016-10-12 12:31:58.853] [INFO] middleware - La asignacion: 2 fue eliminada exitosamente
[2016-10-12 12:31:59.726] [INFO] middleware - La asignacion: 2 fue eliminada exitosamente
[2016-10-12 12:35:04.102] [INFO] middleware - La asignacion: 2 fue eliminada exitosamente
[2016-10-12 12:50:51.004] [ERROR] middleware - Error al buscar una  asignacion con id: 1&2&cargo&20 el error es:
[2016-10-12 12:50:51.008] [ERROR] middleware - { [CastError: Cast to number failed for value "1&2&cargo&20" at path "_id"]
  message: 'Cast to number failed for value "1&2&cargo&20" at path "_id"',
  name: 'CastError',
  kind: 'number',
  value: '1&2&cargo&20',
  path: '_id',
  reason: undefined }
CastError: Cast to number failed for value "1&2&cargo&20" at path "_id"
    at MongooseError.CastError (/home/gaby/Desktop/BDD/Repositorio/bbdd2016/node_modules/mongoose/lib/error/cast.js:26:11)
    at SchemaNumber.cast (/home/gaby/Desktop/BDD/Repositorio/bbdd2016/node_modules/mongoose/lib/schema/number.js:231:9)
    at SchemaNumber.castForQuery (/home/gaby/Desktop/BDD/Repositorio/bbdd2016/node_modules/mongoose/lib/schema/number.js:282:14)
    at cast (/home/gaby/Desktop/BDD/Repositorio/bbdd2016/node_modules/mongoose/lib/cast.js:213:32)
    at Query.cast (/home/gaby/Desktop/BDD/Repositorio/bbdd2016/node_modules/mongoose/lib/query.js:2664:10)
    at Query.findOne (/home/gaby/Desktop/BDD/Repositorio/bbdd2016/node_modules/mongoose/lib/query.js:1284:10)
    at Function.findOne (/home/gaby/Desktop/BDD/Repositorio/bbdd2016/node_modules/mongoose/lib/model.js:1320:13)
    at exports.getAsignacion (/home/gaby/Desktop/BDD/Repositorio/bbdd2016/controllers/asignacionController.js:25:16)
    at Layer.handle [as handle_request] (/home/gaby/Desktop/BDD/Repositorio/bbdd2016/node_modules/express/lib/router/layer.js:95:5)
    at next (/home/gaby/Desktop/BDD/Repositorio/bbdd2016/node_modules/express/lib/router/route.js:131:13)
    at Route.dispatch (/home/gaby/Desktop/BDD/Repositorio/bbdd2016/node_modules/express/lib/router/route.js:112:3)
    at Layer.handle [as handle_request] (/home/gaby/Desktop/BDD/Repositorio/bbdd2016/node_modules/express/lib/router/layer.js:95:5)
    at /home/gaby/Desktop/BDD/Repositorio/bbdd2016/node_modules/express/lib/router/index.js:277:22
    at param (/home/gaby/Desktop/BDD/Repositorio/bbdd2016/node_modules/express/lib/router/index.js:349:14)
    at param (/home/gaby/Desktop/BDD/Repositorio/bbdd2016/node_modules/express/lib/router/index.js:365:14)
    at Function.process_params (/home/gaby/Desktop/BDD/Repositorio/bbdd2016/node_modules/express/lib/router/index.js:410:3)
[2016-10-12 12:52:41.086] [INFO] middleware - Asignacion añadida con éxito
[2016-10-12 12:52:52.671] [ERROR] middleware - Error al añadir la asignacion; el error es:
[2016-10-12 12:52:52.674] [ERROR] middleware - { [MongoError: E11000 duplicate key error index: api_dev.asignacions.$empleado_1_proyecto_1  dup key: { : 1, : 2 }]
  name: 'MongoError',
  message: 'E11000 duplicate key error index: api_dev.asignacions.$empleado_1_proyecto_1  dup key: { : 1, : 2 }',
  driver: true,
  code: 11000,
  index: 0,
  errmsg: 'E11000 duplicate key error index: api_dev.asignacions.$empleado_1_proyecto_1  dup key: { : 1, : 2 }',
  getOperation: [Function],
  toJSON: [Function],
  toString: [Function] }
WriteError({"code":11000,"index":0,"errmsg":"E11000 duplicate key error index: api_dev.asignacions.$empleado_1_proyecto_1  dup key: { : 1, : 2 }","op":{"_id":5,"hs":20,"cargo":"cargo","proyecto":2,"empleado":1,"__v":0}})
    at Function.MongoError.create (/home/gaby/Desktop/BDD/Repositorio/bbdd2016/node_modules/mongoose/node_modules/mongodb/node_modules/mongodb-core/lib/error.js:31:11)
    at toError (/home/gaby/Desktop/BDD/Repositorio/bbdd2016/node_modules/mongoose/node_modules/mongodb/lib/utils.js:114:22)
    at /home/gaby/Desktop/BDD/Repositorio/bbdd2016/node_modules/mongoose/node_modules/mongodb/lib/collection.js:620:23
    at handleCallback (/home/gaby/Desktop/BDD/Repositorio/bbdd2016/node_modules/mongoose/node_modules/mongodb/lib/utils.js:96:12)
    at /home/gaby/Desktop/BDD/Repositorio/bbdd2016/node_modules/mongoose/node_modules/mongodb/lib/bulk/unordered.js:473:9
    at handleCallback (/home/gaby/Desktop/BDD/Repositorio/bbdd2016/node_modules/mongoose/node_modules/mongodb/lib/utils.js:96:12)
    at resultHandler (/home/gaby/Desktop/BDD/Repositorio/bbdd2016/node_modules/mongoose/node_modules/mongodb/lib/bulk/unordered.js:420:5)
    at /home/gaby/Desktop/BDD/Repositorio/bbdd2016/node_modules/mongoose/node_modules/mongodb/node_modules/mongodb-core/lib/wireprotocol/2_4_support.js:544:17
    at process._tickCallback (node.js:448:13)
[2016-10-12 13:08:50.310] [INFO] middleware - La asignacion: 7 fue eliminada exitosamente
[2016-10-12 13:09:01.554] [INFO] middleware - La asignacion: 7 fue eliminada exitosamente
[2016-10-12 13:09:31.844] [INFO] middleware - La asignacion: 4 fue eliminada exitosamente
[2016-10-12 13:40:40.727] [INFO] middleware - Asignacion añadida con éxito
[2016-10-12 13:41:11.675] [INFO] middleware - La asignacion: 6 fue eliminada exitosamente
[2016-10-12 13:50:51.182] [INFO] middleware - Asignacion añadida con éxito
[2016-10-12 13:51:27.450] [INFO] middleware - Asignacion añadida con éxito
[2016-10-12 13:54:15.972] [INFO] middleware - Se actualizó la asignacion con id: 7
[2016-10-12 13:54:30.348] [INFO] middleware - Se actualizó la asignacion con id: 7
[2016-10-12 13:59:47.106] [INFO] middleware - Asignacion añadida con éxito
[2016-10-12 14:00:27.668] [ERROR] middleware - Error al añadir la asignacion; el error es:
[2016-10-12 14:00:27.669] [ERROR] middleware - { [MongoError: E11000 duplicate key error index: api_dev.asignacions.$empleado_1_proyecto_1  dup key: { : 1, : 2 }]
  name: 'MongoError',
  message: 'E11000 duplicate key error index: api_dev.asignacions.$empleado_1_proyecto_1  dup key: { : 1, : 2 }',
  driver: true,
  code: 11000,
  index: 0,
  errmsg: 'E11000 duplicate key error index: api_dev.asignacions.$empleado_1_proyecto_1  dup key: { : 1, : 2 }',
  getOperation: [Function],
  toJSON: [Function],
  toString: [Function] }
WriteError({"code":11000,"index":0,"errmsg":"E11000 duplicate key error index: api_dev.asignacions.$empleado_1_proyecto_1  dup key: { : 1, : 2 }","op":{"_id":10,"hs":111,"cargo":"cargo","proyecto":2,"empleado":1,"__v":0}})
    at Function.MongoError.create (/home/gaby/Desktop/BDD/Repositorio/bbdd2016/node_modules/mongoose/node_modules/mongodb/node_modules/mongodb-core/lib/error.js:31:11)
    at toError (/home/gaby/Desktop/BDD/Repositorio/bbdd2016/node_modules/mongoose/node_modules/mongodb/lib/utils.js:114:22)
    at /home/gaby/Desktop/BDD/Repositorio/bbdd2016/node_modules/mongoose/node_modules/mongodb/lib/collection.js:620:23
    at handleCallback (/home/gaby/Desktop/BDD/Repositorio/bbdd2016/node_modules/mongoose/node_modules/mongodb/lib/utils.js:96:12)
    at /home/gaby/Desktop/BDD/Repositorio/bbdd2016/node_modules/mongoose/node_modules/mongodb/lib/bulk/unordered.js:473:9
    at handleCallback (/home/gaby/Desktop/BDD/Repositorio/bbdd2016/node_modules/mongoose/node_modules/mongodb/lib/utils.js:96:12)
    at resultHandler (/home/gaby/Desktop/BDD/Repositorio/bbdd2016/node_modules/mongoose/node_modules/mongodb/lib/bulk/unordered.js:420:5)
    at /home/gaby/Desktop/BDD/Repositorio/bbdd2016/node_modules/mongoose/node_modules/mongodb/node_modules/mongodb-core/lib/wireprotocol/2_4_support.js:544:17
    at process._tickCallback (node.js:448:13)
[2016-10-12 14:03:20.884] [ERROR] middleware - Error al actualizar la asignacion; el error es:
[2016-10-12 14:03:20.886] [ERROR] middleware - { [ValidationError: Asignacion validation failed]
  message: 'Asignacion validation failed',
  name: 'ValidationError',
  errors: 
   { proyecto: 
      { [CastError: Cast to Number failed for value "2&cargo&111" at path "proyecto"]
        message: 'Cast to Number failed for value "2&cargo&111" at path "proyecto"',
        name: 'CastError',
        kind: 'Number',
        value: '2&cargo&111',
        path: 'proyecto',
        reason: [Object] } } }
ValidationError: CastError: Cast to Number failed for value "2&cargo&111" at path "proyecto"
    at MongooseError.ValidationError (/home/gaby/Desktop/BDD/Repositorio/bbdd2016/node_modules/mongoose/lib/error/validation.js:22:11)
    at model.Document.invalidate (/home/gaby/Desktop/BDD/Repositorio/bbdd2016/node_modules/mongoose/lib/document.js:1410:32)
    at model.Document.set (/home/gaby/Desktop/BDD/Repositorio/bbdd2016/node_modules/mongoose/lib/document.js:703:10)
    at model.Object.defineProperty.set [as proyecto] (/home/gaby/Desktop/BDD/Repositorio/bbdd2016/node_modules/mongoose/lib/document.js:1712:25)
    at /home/gaby/Desktop/BDD/Repositorio/bbdd2016/controllers/asignacionController.js:94:26
    at Query.<anonymous> (/home/gaby/Desktop/BDD/Repositorio/bbdd2016/node_modules/mongoose/lib/model.js:3327:16)
    at /home/gaby/Desktop/BDD/Repositorio/bbdd2016/node_modules/mongoose/node_modules/kareem/index.js:259:21
    at /home/gaby/Desktop/BDD/Repositorio/bbdd2016/node_modules/mongoose/node_modules/kareem/index.js:127:16
    at process._tickCallback (node.js:448:13)
[2016-10-12 14:04:03.290] [ERROR] middleware - Error al actualizar la asignacion; el error es:
[2016-10-12 14:04:03.290] [ERROR] middleware - { [MongoError: E11000 duplicate key error index: api_dev.asignacions.$empleado_1_proyecto_1  dup key: { : 1, : 2 }]
  name: 'MongoError',
  message: 'E11000 duplicate key error index: api_dev.asignacions.$empleado_1_proyecto_1  dup key: { : 1, : 2 }',
  driver: true,
  ok: 1,
  n: 0,
  code: 11001,
  errmsg: 'E11000 duplicate key error index: api_dev.asignacions.$empleado_1_proyecto_1  dup key: { : 1, : 2 }',
  writeErrors: 
   [ { index: 0,
       code: 11001,
       errmsg: 'E11000 duplicate key error index: api_dev.asignacions.$empleado_1_proyecto_1  dup key: { : 1, : 2 }' } ] }
MongoError: E11000 duplicate key error index: api_dev.asignacions.$empleado_1_proyecto_1  dup key: { : 1, : 2 }
    at Function.MongoError.create (/home/gaby/Desktop/BDD/Repositorio/bbdd2016/node_modules/mongoose/node_modules/mongodb/node_modules/mongodb-core/lib/error.js:31:11)
    at toError (/home/gaby/Desktop/BDD/Repositorio/bbdd2016/node_modules/mongoose/node_modules/mongodb/lib/utils.js:114:22)
    at /home/gaby/Desktop/BDD/Repositorio/bbdd2016/node_modules/mongoose/node_modules/mongodb/lib/collection.js:1007:60
    at getLastErrorCallback (/home/gaby/Desktop/BDD/Repositorio/bbdd2016/node_modules/mongoose/node_modules/mongodb/node_modules/mongodb-core/lib/wireprotocol/2_4_support.js:462:20)
    at Callbacks.emit (/home/gaby/Desktop/BDD/Repositorio/bbdd2016/node_modules/mongoose/node_modules/mongodb/node_modules/mongodb-core/lib/topologies/server.js:119:3)
    at null.messageHandler (/home/gaby/Desktop/BDD/Repositorio/bbdd2016/node_modules/mongoose/node_modules/mongodb/node_modules/mongodb-core/lib/topologies/server.js:358:23)
    at Socket.<anonymous> (/home/gaby/Desktop/BDD/Repositorio/bbdd2016/node_modules/mongoose/node_modules/mongodb/node_modules/mongodb-core/lib/connection/connection.js:292:22)
    at Socket.emit (events.js:95:17)
    at Socket.<anonymous> (_stream_readable.js:765:14)
    at Socket.emit (events.js:92:17)
    at emitReadable_ (_stream_readable.js:427:10)
    at emitReadable (_stream_readable.js:423:5)
    at readableAddChunk (_stream_readable.js:166:9)
    at Socket.Readable.push (_stream_readable.js:128:10)
    at TCP.onread (net.js:529:21)
[2016-10-12 14:05:00.528] [INFO] middleware - Se actualizó la asignacion con id: 7
[2016-10-12 14:05:17.146] [ERROR] middleware - Error al actualizar la asignacion; el error es:
[2016-10-12 14:05:17.146] [ERROR] middleware - { [MongoError: E11000 duplicate key error index: api_dev.asignacions.$empleado_1_proyecto_1  dup key: { : 1, : 2 }]
  name: 'MongoError',
  message: 'E11000 duplicate key error index: api_dev.asignacions.$empleado_1_proyecto_1  dup key: { : 1, : 2 }',
  driver: true,
  ok: 1,
  n: 0,
  code: 11001,
  errmsg: 'E11000 duplicate key error index: api_dev.asignacions.$empleado_1_proyecto_1  dup key: { : 1, : 2 }',
  writeErrors: 
   [ { index: 0,
       code: 11001,
       errmsg: 'E11000 duplicate key error index: api_dev.asignacions.$empleado_1_proyecto_1  dup key: { : 1, : 2 }' } ] }
MongoError: E11000 duplicate key error index: api_dev.asignacions.$empleado_1_proyecto_1  dup key: { : 1, : 2 }
    at Function.MongoError.create (/home/gaby/Desktop/BDD/Repositorio/bbdd2016/node_modules/mongoose/node_modules/mongodb/node_modules/mongodb-core/lib/error.js:31:11)
    at toError (/home/gaby/Desktop/BDD/Repositorio/bbdd2016/node_modules/mongoose/node_modules/mongodb/lib/utils.js:114:22)
    at /home/gaby/Desktop/BDD/Repositorio/bbdd2016/node_modules/mongoose/node_modules/mongodb/lib/collection.js:1007:60
    at getLastErrorCallback (/home/gaby/Desktop/BDD/Repositorio/bbdd2016/node_modules/mongoose/node_modules/mongodb/node_modules/mongodb-core/lib/wireprotocol/2_4_support.js:462:20)
    at Callbacks.emit (/home/gaby/Desktop/BDD/Repositorio/bbdd2016/node_modules/mongoose/node_modules/mongodb/node_modules/mongodb-core/lib/topologies/server.js:119:3)
    at null.messageHandler (/home/gaby/Desktop/BDD/Repositorio/bbdd2016/node_modules/mongoose/node_modules/mongodb/node_modules/mongodb-core/lib/topologies/server.js:358:23)
    at Socket.<anonymous> (/home/gaby/Desktop/BDD/Repositorio/bbdd2016/node_modules/mongoose/node_modules/mongodb/node_modules/mongodb-core/lib/connection/connection.js:292:22)
    at Socket.emit (events.js:95:17)
    at Socket.<anonymous> (_stream_readable.js:765:14)
    at Socket.emit (events.js:92:17)
    at emitReadable_ (_stream_readable.js:427:10)
    at emitReadable (_stream_readable.js:423:5)
    at readableAddChunk (_stream_readable.js:166:9)
    at Socket.Readable.push (_stream_readable.js:128:10)
    at TCP.onread (net.js:529:21)
[2016-10-13 07:54:03.995] [INFO] middleware - Se actualizó la asignacion con id: 9
[2016-10-13 08:01:47.691] [INFO] middleware - Se actualizó la asignacion con id: 9
[2016-10-13 08:01:57.504] [ERROR] middleware - Error al actualizar la asignacion;
[2016-10-13 08:01:57.506] [ERROR] middleware - No existe la asignacion
[2016-10-13 08:02:39.668] [ERROR] middleware - Error al actualizar la asignacion;
[2016-10-13 08:02:39.671] [ERROR] middleware - No existe la asignacion
[2016-10-13 08:02:51.779] [ERROR] middleware - Error al actualizar la asignacion;
[2016-10-13 08:02:51.779] [ERROR] middleware - No existe la asignacion
[2016-10-13 08:03:34.033] [ERROR] middleware - Error al actualizar la asignacion;No existe la asignacion
[2016-10-13 08:03:34.035] [ERROR] middleware - No existe la asignacion
[2016-10-13 08:04:46.664] [ERROR] middleware - Error al actualizar la asignacion; No existe la asignacion
[2016-10-13 08:06:26.226] [ERROR] middleware - Error al actualizar la asignacion; No existe la asignacion
[2016-10-13 08:07:43.185] [ERROR] middleware - Error al actualizar la asignacion; 
[2016-10-13 08:08:53.174] [ERROR] middleware - Error al actualizar la asignacion; 
[2016-10-13 08:08:53.183] [ERROR] middleware - No existe la asignacion
[2016-10-13 08:09:52.094] [ERROR] middleware - Error al actualizar la asignacion; 
[2016-10-13 08:09:52.103] [ERROR] middleware - No existe la asignacion
[2016-10-13 08:10:25.341] [ERROR] middleware - Error al actualizar la asignacion; 
[2016-10-13 08:10:25.346] [ERROR] middleware - No existe la asignacion
[2016-10-13 08:12:10.804] [ERROR] middleware - Error al actualizar la asignacion; 
[2016-10-13 08:13:05.919] [ERROR] middleware - Error al actualizar la asignacion; el error es: MongoError: E11000 duplicate key error index: api_dev.asignacions.$empleado_1_proyecto_1  dup key: { : 1, : 2 }
[2016-10-13 08:14:10.430] [ERROR] middleware - Error al actualizar la asignacion; el error es: 
[2016-10-13 08:16:37.093] [ERROR] middleware - Error al actualizar la asignacion; 
[2016-10-13 08:16:46.168] [ERROR] middleware - Error al actualizar la asignacion; 
[2016-10-13 08:16:55.118] [ERROR] middleware - Error al actualizar la asignacion; 
[2016-10-13 08:17:16.130] [ERROR] middleware - Error al actualizar la asignacion; el error es: 
[2016-10-13 08:18:49.107] [ERROR] middleware - Error al actualizar la asignacion; 
[2016-10-13 08:19:05.691] [INFO] middleware - Se actualizó la asignacion con id: 7
[2016-10-13 08:21:42.430] [INFO] middleware - Se actualizó la asignacion con id: 7
[2016-10-13 08:21:46.744] [ERROR] middleware - Error al actualizar la asignacion; 
[2016-10-13 08:21:53.112] [ERROR] middleware - Error al actualizar la asignacion; 
[2016-10-13 08:21:59.914] [ERROR] middleware - Error al actualizar la asignacion; 
[2016-10-13 08:22:06.605] [ERROR] middleware - Error al actualizar la asignacion; 
[2016-10-13 08:23:08.750] [ERROR] middleware - Error al actualizar la asignacion; 
[2016-10-13 08:23:24.625] [ERROR] middleware - Error al actualizar la asignacion; 
[2016-10-13 08:51:08.317] [ERROR] middleware - Error al actualizar la asignacion; 
[2016-10-13 09:09:04.978] [INFO] middleware - Empleado añadido con éxito
[2016-10-13 09:24:52.951] [ERROR] middleware - Error al buscar el empleado con id: sasasa el error es:
[2016-10-13 09:24:52.953] [ERROR] middleware - { [CastError: Cast to number failed for value "sasasa" at path "empleado"]
  message: 'Cast to number failed for value "sasasa" at path "empleado"',
  name: 'CastError',
  kind: 'number',
  value: 'sasasa',
  path: 'empleado',
  reason: undefined }
CastError: Cast to number failed for value "sasasa" at path "empleado"
    at MongooseError.CastError (/home/gaby/Desktop/BDD/Repositorio/bbdd2016/node_modules/mongoose/lib/error/cast.js:26:11)
    at SchemaNumber.cast (/home/gaby/Desktop/BDD/Repositorio/bbdd2016/node_modules/mongoose/lib/schema/number.js:231:9)
    at SchemaNumber.castForQuery (/home/gaby/Desktop/BDD/Repositorio/bbdd2016/node_modules/mongoose/lib/schema/number.js:282:14)
    at cast (/home/gaby/Desktop/BDD/Repositorio/bbdd2016/node_modules/mongoose/lib/cast.js:213:32)
    at Query.cast (/home/gaby/Desktop/BDD/Repositorio/bbdd2016/node_modules/mongoose/lib/query.js:2664:10)
    at Query.findOne (/home/gaby/Desktop/BDD/Repositorio/bbdd2016/node_modules/mongoose/lib/query.js:1284:10)
    at Function.findOne (/home/gaby/Desktop/BDD/Repositorio/bbdd2016/node_modules/mongoose/lib/model.js:1320:13)
    at exports.deleteEmpleado (/home/gaby/Desktop/BDD/Repositorio/bbdd2016/controllers/empleadoController.js:149:16)
    at Layer.handle [as handle_request] (/home/gaby/Desktop/BDD/Repositorio/bbdd2016/node_modules/express/lib/router/layer.js:95:5)
    at next (/home/gaby/Desktop/BDD/Repositorio/bbdd2016/node_modules/express/lib/router/route.js:131:13)
    at next (/home/gaby/Desktop/BDD/Repositorio/bbdd2016/node_modules/express/lib/router/route.js:125:14)
    at Route.dispatch (/home/gaby/Desktop/BDD/Repositorio/bbdd2016/node_modules/express/lib/router/route.js:112:3)
    at Layer.handle [as handle_request] (/home/gaby/Desktop/BDD/Repositorio/bbdd2016/node_modules/express/lib/router/layer.js:95:5)
    at /home/gaby/Desktop/BDD/Repositorio/bbdd2016/node_modules/express/lib/router/index.js:277:22
    at param (/home/gaby/Desktop/BDD/Repositorio/bbdd2016/node_modules/express/lib/router/index.js:349:14)
    at param (/home/gaby/Desktop/BDD/Repositorio/bbdd2016/node_modules/express/lib/router/index.js:365:14)
[2016-10-13 09:27:07.504] [ERROR] middleware - Error al buscar el empleado con id: sasasa el error es:
[2016-10-13 09:29:37.514] [ERROR] middleware - Error al buscar el empleado con id: sasasa el error es:
[2016-10-13 09:31:09.569] [ERROR] middleware - Error al buscar el empleado con id: sasasa el error es:
[2016-10-13 09:33:35.201] [ERROR] middleware - Error al buscar el empleado con id: sasasa el error es:
[2016-10-13 09:39:49.222] [ERROR] middleware - Error al buscar el empleado con id: ljk el error es:
[2016-10-13 09:39:58.113] [INFO] middleware - El empleado: 0 fue eliminado exitosamente
[2016-10-13 09:57:15.786] [ERROR] middleware - Error al buscar el empleado con id: jkdjs el error es:
[2016-10-13 09:57:26.328] [INFO] middleware - El empleado: 6 fue eliminado exitosamente
[2016-10-13 09:57:43.770] [INFO] middleware - El empleado: 6 fue eliminado exitosamente
