[2016-09-07 11:47:14.262] [INFO] middleware - App añadida con éxito
[2016-09-28 07:21:56.719] [INFO] middleware - Paga añadida con éxito
[2016-09-28 07:22:43.701] [INFO] middleware - Paga añadida con éxito
[2016-10-03 09:32:45.381] [INFO] middleware - La aplicación: 57d060af554cd75b2a08fe03 fue eliminada exitosamente
[2016-10-03 09:41:31.474] [INFO] middleware - La Paga: 57ebd23341417c250f5b9192 fue eliminada exitosamente
[2016-10-03 09:42:00.324] [INFO] middleware - La Paga: 57ebd20441417c250f5b9191 fue eliminada exitosamente
[2016-10-03 10:59:51.321] [INFO] middleware - Contador añadido con éxito
[2016-10-03 11:10:12.402] [INFO] middleware - El contador: pagas fue eliminado exitosamente
[2016-10-03 11:20:11.463] [INFO] middleware - Contador añadido con éxito
[2016-10-03 11:20:21.398] [ERROR] middleware - Error al añadir el contador, el error es:
[2016-10-03 11:20:21.398] [ERROR] middleware - { [MongoError: E11000 duplicate key error index: api_dev.contadors.$_id_  dup key: { : "hola" }]
  name: 'MongoError',
  message: 'E11000 duplicate key error index: api_dev.contadors.$_id_  dup key: { : "hola" }',
  driver: true,
  code: 11000,
  index: 0,
  errmsg: 'E11000 duplicate key error index: api_dev.contadors.$_id_  dup key: { : "hola" }',
  getOperation: [Function],
  toJSON: [Function],
  toString: [Function] }
WriteError({"code":11000,"index":0,"errmsg":"E11000 duplicate key error index: api_dev.contadors.$_id_  dup key: { : \"hola\" }","op":{"_id":"hola","__v":0}})
    at Function.MongoError.create (/home/gaby/Desktop/BDD/Repositorio/bbdd2016/node_modules/mongoose/node_modules/mongodb/node_modules/mongodb-core/lib/error.js:31:11)
    at toError (/home/gaby/Desktop/BDD/Repositorio/bbdd2016/node_modules/mongoose/node_modules/mongodb/lib/utils.js:114:22)
    at /home/gaby/Desktop/BDD/Repositorio/bbdd2016/node_modules/mongoose/node_modules/mongodb/lib/collection.js:620:23
    at handleCallback (/home/gaby/Desktop/BDD/Repositorio/bbdd2016/node_modules/mongoose/node_modules/mongodb/lib/utils.js:96:12)
    at /home/gaby/Desktop/BDD/Repositorio/bbdd2016/node_modules/mongoose/node_modules/mongodb/lib/bulk/unordered.js:473:9
    at handleCallback (/home/gaby/Desktop/BDD/Repositorio/bbdd2016/node_modules/mongoose/node_modules/mongodb/lib/utils.js:96:12)
    at resultHandler (/home/gaby/Desktop/BDD/Repositorio/bbdd2016/node_modules/mongoose/node_modules/mongodb/lib/bulk/unordered.js:420:5)
    at /home/gaby/Desktop/BDD/Repositorio/bbdd2016/node_modules/mongoose/node_modules/mongodb/node_modules/mongodb-core/lib/wireprotocol/2_4_support.js:544:17
    at process._tickCallback (node.js:448:13)
[2016-10-03 11:49:05.404] [INFO] middleware - Paga añadida con éxito
[2016-10-03 11:52:29.732] [INFO] middleware - Paga añadida con éxito
[2016-10-03 11:58:54.231] [INFO] middleware - Contador añadido con éxito
[2016-10-03 12:02:46.604] [INFO] middleware - App añadida con éxito
[2016-10-03 12:06:29.276] [INFO] middleware - Contador añadido con éxito
[2016-10-03 12:07:54.542] [INFO] middleware - Contador añadido con éxito
[2016-10-03 12:15:23.300] [ERROR] middleware - Error al buscar un contador con id: probando el error es:
[2016-10-03 12:15:23.303] [ERROR] middleware - { [CastError: Cast to ObjectId failed for value "probando" at path "_id"]
  message: 'Cast to ObjectId failed for value "probando" at path "_id"',
  name: 'CastError',
  kind: 'ObjectId',
  value: 'probando',
  path: '_id',
  reason: undefined }
CastError: Cast to ObjectId failed for value "probando" at path "_id"
    at MongooseError.CastError (/home/gaby/Desktop/BDD/Repositorio/bbdd2016/node_modules/mongoose/lib/error/cast.js:26:11)
    at ObjectId.cast (/home/gaby/Desktop/BDD/Repositorio/bbdd2016/node_modules/mongoose/lib/schema/objectid.js:147:13)
    at ObjectId.castForQuery (/home/gaby/Desktop/BDD/Repositorio/bbdd2016/node_modules/mongoose/lib/schema/objectid.js:187:15)
    at cast (/home/gaby/Desktop/BDD/Repositorio/bbdd2016/node_modules/mongoose/lib/cast.js:213:32)
    at Query.cast (/home/gaby/Desktop/BDD/Repositorio/bbdd2016/node_modules/mongoose/lib/query.js:2664:10)
    at Query.findOne (/home/gaby/Desktop/BDD/Repositorio/bbdd2016/node_modules/mongoose/lib/query.js:1284:10)
    at Function.findOne (/home/gaby/Desktop/BDD/Repositorio/bbdd2016/node_modules/mongoose/lib/model.js:1320:13)
    at exports.getContador (/home/gaby/Desktop/BDD/Repositorio/bbdd2016/controllers/contadorController.js:30:14)
    at Layer.handle [as handle_request] (/home/gaby/Desktop/BDD/Repositorio/bbdd2016/node_modules/express/lib/router/layer.js:95:5)
    at next (/home/gaby/Desktop/BDD/Repositorio/bbdd2016/node_modules/express/lib/router/route.js:131:13)
    at Route.dispatch (/home/gaby/Desktop/BDD/Repositorio/bbdd2016/node_modules/express/lib/router/route.js:112:3)
    at Layer.handle [as handle_request] (/home/gaby/Desktop/BDD/Repositorio/bbdd2016/node_modules/express/lib/router/layer.js:95:5)
    at /home/gaby/Desktop/BDD/Repositorio/bbdd2016/node_modules/express/lib/router/index.js:277:22
    at param (/home/gaby/Desktop/BDD/Repositorio/bbdd2016/node_modules/express/lib/router/index.js:349:14)
    at param (/home/gaby/Desktop/BDD/Repositorio/bbdd2016/node_modules/express/lib/router/index.js:365:14)
    at Function.process_params (/home/gaby/Desktop/BDD/Repositorio/bbdd2016/node_modules/express/lib/router/index.js:410:3)
[2016-10-03 12:19:55.273] [INFO] middleware - Contador añadido con éxito
[2016-10-03 12:21:17.099] [INFO] middleware - Contador añadido con éxito
[2016-10-03 12:22:30.029] [ERROR] middleware - Error al añadir el contador, el error es:
[2016-10-03 12:22:30.034] [ERROR] middleware - { [MongoError: E11000 duplicate key error index: api_dev.contadors.$_id_  dup key: { : "otro" }]
  name: 'MongoError',
  message: 'E11000 duplicate key error index: api_dev.contadors.$_id_  dup key: { : "otro" }',
  driver: true,
  code: 11000,
  index: 0,
  errmsg: 'E11000 duplicate key error index: api_dev.contadors.$_id_  dup key: { : "otro" }',
  getOperation: [Function],
  toJSON: [Function],
  toString: [Function] }
WriteError({"code":11000,"index":0,"errmsg":"E11000 duplicate key error index: api_dev.contadors.$_id_  dup key: { : \"otro\" }","op":{"secuencia":0,"_id":"otro","__v":0}})
    at Function.MongoError.create (/home/gaby/Desktop/BDD/Repositorio/bbdd2016/node_modules/mongoose/node_modules/mongodb/node_modules/mongodb-core/lib/error.js:31:11)
    at toError (/home/gaby/Desktop/BDD/Repositorio/bbdd2016/node_modules/mongoose/node_modules/mongodb/lib/utils.js:114:22)
    at /home/gaby/Desktop/BDD/Repositorio/bbdd2016/node_modules/mongoose/node_modules/mongodb/lib/collection.js:620:23
    at handleCallback (/home/gaby/Desktop/BDD/Repositorio/bbdd2016/node_modules/mongoose/node_modules/mongodb/lib/utils.js:96:12)
    at /home/gaby/Desktop/BDD/Repositorio/bbdd2016/node_modules/mongoose/node_modules/mongodb/lib/bulk/unordered.js:473:9
    at handleCallback (/home/gaby/Desktop/BDD/Repositorio/bbdd2016/node_modules/mongoose/node_modules/mongodb/lib/utils.js:96:12)
    at resultHandler (/home/gaby/Desktop/BDD/Repositorio/bbdd2016/node_modules/mongoose/node_modules/mongodb/lib/bulk/unordered.js:420:5)
    at /home/gaby/Desktop/BDD/Repositorio/bbdd2016/node_modules/mongoose/node_modules/mongodb/node_modules/mongodb-core/lib/wireprotocol/2_4_support.js:544:17
    at process._tickCallback (node.js:448:13)
[2016-10-03 12:34:04.984] [INFO] middleware - El contador: hola fue eliminado exitosamente
[2016-10-03 12:34:45.369] [INFO] middleware - Paga añadida con éxito
[2016-10-03 12:39:34.108] [INFO] middleware - Paga añadida con éxito
[2016-10-03 12:42:14.989] [INFO] middleware - Paga añadida con éxito
[2016-10-03 12:45:15.345] [INFO] middleware - Paga añadida con éxito
[2016-10-03 12:46:00.041] [INFO] middleware - Paga añadida con éxito
[2016-10-03 12:48:40.018] [INFO] middleware - Paga añadida con éxito
[2016-10-03 12:50:48.676] [INFO] middleware - Paga añadida con éxito
[2016-10-03 12:50:48.713] [INFO] middleware - Se actualizó el contador con id: otro
[2016-10-03 12:52:27.290] [INFO] middleware - Paga añadida con éxito
[2016-10-03 12:52:53.157] [INFO] middleware - Paga añadida con éxito
[2016-10-03 12:52:53.174] [INFO] middleware - Se actualizó el contador con id: otro
[2016-10-03 15:17:34.486] [INFO] middleware - El contador: nuevo fue eliminado exitosamente
[2016-10-03 15:17:53.196] [INFO] middleware - El contador: probando fue eliminado exitosamente
[2016-10-03 15:18:01.862] [INFO] middleware - El contador: otro fue eliminado exitosamente
[2016-10-03 15:18:20.474] [INFO] middleware - El contador: 57f2ac359eb05f1116b07165 fue eliminado exitosamente
[2016-10-03 15:18:40.892] [INFO] middleware - El contador: 57f2ac8a2450c42b167e392d fue eliminado exitosamente
[2016-10-03 15:19:04.242] [INFO] middleware - El contador: 57f2ac359eb05f1116b07165 fue eliminado exitosamente
[2016-10-03 15:19:31.729] [INFO] middleware - El contador: 57f2ac8a2450c42b167e392d fue eliminado exitosamente
[2016-10-03 15:21:35.177] [INFO] middleware - El contador: 57f2ac8a2450c42b167e392d fue eliminado exitosamente
[2016-10-03 15:23:29.076] [INFO] middleware - El contador: 57f2ac8a2450c42b167e392d fue eliminado exitosamente
[2016-10-03 15:23:57.182] [INFO] middleware - El contador: 57f2ac359eb05f1116b07165 fue eliminado exitosamente
[2016-10-03 15:42:19.884] [INFO] middleware - Contador añadido con éxito
[2016-10-03 15:43:01.119] [INFO] middleware - La Paga: 57f2a821c0f62a8a155f9c64 fue eliminada exitosamente
[2016-10-03 15:43:19.332] [INFO] middleware - La Paga: 57f2a8ed47c7d7ac159c1682 fue eliminada exitosamente
[2016-10-03 15:43:35.575] [INFO] middleware - La Paga: 57f2b2d5e7c205dd166b24a2 fue eliminada exitosamente
[2016-10-03 15:44:02.331] [INFO] middleware - La Paga: 57f2b3f66397e84d174d047f fue eliminada exitosamente
[2016-10-03 15:44:50.718] [INFO] middleware - La Paga: 57f2b7155409830018c2e58b fue eliminada exitosamente
[2016-10-03 15:45:10.677] [INFO] middleware - La Paga: 57f2b69835afc9d7179adf9f fue eliminada exitosamente
[2016-10-03 15:45:22.832] [INFO] middleware - La Paga: 57f2b496892ad17d17853e89 fue eliminada exitosamente
[2016-10-03 15:45:42.651] [INFO] middleware - La Paga: 57f2b54ba06ed99217973710 fue eliminada exitosamente
[2016-10-03 15:45:57.766] [INFO] middleware - La Paga: 57f2b5771ef0faa117316119 fue eliminada exitosamente
[2016-10-03 15:46:15.250] [INFO] middleware - La Paga: 57f2b617e62168c217594ac8 fue eliminada exitosamente
[2016-10-03 15:46:31.934] [INFO] middleware - La Paga: 57f2b6fb7dbb37f3170711c9 fue eliminada exitosamente
[2016-10-03 16:56:51.877] [INFO] middleware - Contador añadido con éxito
[2016-10-03 16:57:12.165] [INFO] middleware - Contador añadido con éxito
[2016-10-03 16:57:29.524] [INFO] middleware - Contador añadido con éxito
[2016-10-03 16:59:35.392] [ERROR] middleware - Error al añadir Paga con clave: undefined el error es:
[2016-10-03 16:59:35.405] [ERROR] middleware - [Error: document must have an _id before saving]
Error: document must have an _id before saving
    at null._onTimeout (/home/gaby/Desktop/BDD/Repositorio/bbdd2016/node_modules/mongoose/lib/model.js:120:18)
    at Timer.listOnTimeout [as ontimeout] (timers.js:112:15)
[2016-10-03 17:00:19.960] [ERROR] middleware - Error al añadir Paga con clave: undefined el error es:
[2016-10-03 17:00:19.962] [ERROR] middleware - [Error: document must have an _id before saving]
Error: document must have an _id before saving
    at null._onTimeout (/home/gaby/Desktop/BDD/Repositorio/bbdd2016/node_modules/mongoose/lib/model.js:120:18)
    at Timer.listOnTimeout [as ontimeout] (timers.js:112:15)
[2016-10-03 17:10:17.404] [INFO] middleware - Paga añadida con éxito
[2016-10-03 17:10:59.884] [INFO] middleware - Paga añadida con éxito
[2016-10-03 17:12:09.450] [INFO] middleware - Paga añadida con éxito
[2016-10-03 17:13:07.997] [INFO] middleware - Paga añadida con éxito
[2016-10-03 17:20:10.928] [INFO] middleware - Paga añadida con éxito
[2016-10-03 17:22:33.833] [INFO] middleware - La Paga: Ingeniero 20Electronico fue eliminada exitosamente
[2016-10-03 17:23:57.151] [INFO] middleware - La Paga: Ingeniero Electronico fue eliminada exitosamente
[2016-10-03 17:24:25.618] [INFO] middleware - Paga añadida con éxito
[2016-10-03 19:45:16.224] [INFO] middleware - Empleado añadido con éxito
[2016-10-03 19:49:45.842] [ERROR] middleware - Error al buscar un empleado con id: 5 el error es:
[2016-10-03 19:49:45.846] [ERROR] middleware - { [CastError: Cast to number failed for value "[Function: Number]" at path "_id"]
  message: 'Cast to number failed for value "[Function: Number]" at path "_id"',
  name: 'CastError',
  kind: 'number',
  value: [Function: Number],
  path: '_id',
  reason: undefined }
CastError: Cast to number failed for value "[Function: Number]" at path "_id"
    at MongooseError.CastError (/home/gaby/Desktop/BDD/Repositorio/bbdd2016/node_modules/mongoose/lib/error/cast.js:26:11)
    at SchemaNumber.cast (/home/gaby/Desktop/BDD/Repositorio/bbdd2016/node_modules/mongoose/lib/schema/number.js:231:9)
    at SchemaNumber.castForQuery (/home/gaby/Desktop/BDD/Repositorio/bbdd2016/node_modules/mongoose/lib/schema/number.js:282:14)
    at cast (/home/gaby/Desktop/BDD/Repositorio/bbdd2016/node_modules/mongoose/lib/cast.js:213:32)
    at Query.cast (/home/gaby/Desktop/BDD/Repositorio/bbdd2016/node_modules/mongoose/lib/query.js:2664:10)
    at Query.findOne (/home/gaby/Desktop/BDD/Repositorio/bbdd2016/node_modules/mongoose/lib/query.js:1284:10)
    at Function.findOne (/home/gaby/Desktop/BDD/Repositorio/bbdd2016/node_modules/mongoose/lib/model.js:1320:13)
    at exports.getEmpleado (/home/gaby/Desktop/BDD/Repositorio/bbdd2016/controllers/empleadoController.js:25:14)
    at Layer.handle [as handle_request] (/home/gaby/Desktop/BDD/Repositorio/bbdd2016/node_modules/express/lib/router/layer.js:95:5)
    at next (/home/gaby/Desktop/BDD/Repositorio/bbdd2016/node_modules/express/lib/router/route.js:131:13)
    at Route.dispatch (/home/gaby/Desktop/BDD/Repositorio/bbdd2016/node_modules/express/lib/router/route.js:112:3)
    at Layer.handle [as handle_request] (/home/gaby/Desktop/BDD/Repositorio/bbdd2016/node_modules/express/lib/router/layer.js:95:5)
    at /home/gaby/Desktop/BDD/Repositorio/bbdd2016/node_modules/express/lib/router/index.js:277:22
    at param (/home/gaby/Desktop/BDD/Repositorio/bbdd2016/node_modules/express/lib/router/index.js:349:14)
    at param (/home/gaby/Desktop/BDD/Repositorio/bbdd2016/node_modules/express/lib/router/index.js:365:14)
    at Function.process_params (/home/gaby/Desktop/BDD/Repositorio/bbdd2016/node_modules/express/lib/router/index.js:410:3)
[2016-10-03 19:55:33.952] [INFO] middleware - El empleado: 5 fue eliminado exitosamente
[2016-10-03 20:08:25.397] [INFO] middleware - Se actualizó el contador con id: empleados
[2016-10-03 20:11:37.736] [INFO] middleware - Empleado añadido con éxito
[2016-10-03 20:11:37.743] [INFO] middleware - Se actualizó el contador con id: empleados
[2016-10-03 20:13:07.571] [ERROR] middleware - Error al añadir el empleado con id: -1 el error es:
[2016-10-03 20:13:07.578] [ERROR] middleware - { [MongoError: E11000 duplicate key error index: api_dev.empleados.$_id_  dup key: { : -1 }]
  name: 'MongoError',
  message: 'E11000 duplicate key error index: api_dev.empleados.$_id_  dup key: { : -1 }',
  driver: true,
  code: 11000,
  index: 0,
  errmsg: 'E11000 duplicate key error index: api_dev.empleados.$_id_  dup key: { : -1 }',
  getOperation: [Function],
  toJSON: [Function],
  toString: [Function] }
WriteError({"code":11000,"index":0,"errmsg":"E11000 duplicate key error index: api_dev.empleados.$_id_  dup key: { : -1 }","op":{"_id":-1,"__v":0}})
    at Function.MongoError.create (/home/gaby/Desktop/BDD/Repositorio/bbdd2016/node_modules/mongoose/node_modules/mongodb/node_modules/mongodb-core/lib/error.js:31:11)
    at toError (/home/gaby/Desktop/BDD/Repositorio/bbdd2016/node_modules/mongoose/node_modules/mongodb/lib/utils.js:114:22)
    at /home/gaby/Desktop/BDD/Repositorio/bbdd2016/node_modules/mongoose/node_modules/mongodb/lib/collection.js:620:23
    at handleCallback (/home/gaby/Desktop/BDD/Repositorio/bbdd2016/node_modules/mongoose/node_modules/mongodb/lib/utils.js:96:12)
    at /home/gaby/Desktop/BDD/Repositorio/bbdd2016/node_modules/mongoose/node_modules/mongodb/lib/bulk/unordered.js:473:9
    at handleCallback (/home/gaby/Desktop/BDD/Repositorio/bbdd2016/node_modules/mongoose/node_modules/mongodb/lib/utils.js:96:12)
    at resultHandler (/home/gaby/Desktop/BDD/Repositorio/bbdd2016/node_modules/mongoose/node_modules/mongodb/lib/bulk/unordered.js:420:5)
    at /home/gaby/Desktop/BDD/Repositorio/bbdd2016/node_modules/mongoose/node_modules/mongodb/node_modules/mongodb-core/lib/wireprotocol/2_4_support.js:544:17
    at process._tickCallback (node.js:448:13)
[2016-10-03 20:13:07.585] [INFO] middleware - Se actualizó el contador con id: empleados
[2016-10-03 20:13:55.044] [ERROR] middleware - Error al añadir el empleado con id: undefined el error es:
[2016-10-03 20:13:55.053] [ERROR] middleware - [Error: document must have an _id before saving]
Error: document must have an _id before saving
    at null._onTimeout (/home/gaby/Desktop/BDD/Repositorio/bbdd2016/node_modules/mongoose/lib/model.js:120:18)
    at Timer.listOnTimeout [as ontimeout] (timers.js:112:15)
[2016-10-03 20:13:55.060] [INFO] middleware - Se actualizó el contador con id: empleados
[2016-10-03 20:21:54.175] [INFO] middleware - Empleado añadido con éxito
[2016-10-03 20:21:54.190] [INFO] middleware - Se actualizó el contador con id: empleados
[2016-10-03 20:27:57.670] [ERROR] middleware - Error al añadir el empleado con id: 10 el error es:
[2016-10-03 20:27:57.680] [ERROR] middleware - { [MongoError: E11000 duplicate key error index: api_dev.empleados.$_id_  dup key: { : 10 }]
  name: 'MongoError',
  message: 'E11000 duplicate key error index: api_dev.empleados.$_id_  dup key: { : 10 }',
  driver: true,
  code: 11000,
  index: 0,
  errmsg: 'E11000 duplicate key error index: api_dev.empleados.$_id_  dup key: { : 10 }',
  getOperation: [Function],
  toJSON: [Function],
  toString: [Function] }
WriteError({"code":11000,"index":0,"errmsg":"E11000 duplicate key error index: api_dev.empleados.$_id_  dup key: { : 10 }","op":{"_id":10,"__v":0}})
    at Function.MongoError.create (/home/gaby/Desktop/BDD/Repositorio/bbdd2016/node_modules/mongoose/node_modules/mongodb/node_modules/mongodb-core/lib/error.js:31:11)
    at toError (/home/gaby/Desktop/BDD/Repositorio/bbdd2016/node_modules/mongoose/node_modules/mongodb/lib/utils.js:114:22)
    at /home/gaby/Desktop/BDD/Repositorio/bbdd2016/node_modules/mongoose/node_modules/mongodb/lib/collection.js:620:23
    at handleCallback (/home/gaby/Desktop/BDD/Repositorio/bbdd2016/node_modules/mongoose/node_modules/mongodb/lib/utils.js:96:12)
    at /home/gaby/Desktop/BDD/Repositorio/bbdd2016/node_modules/mongoose/node_modules/mongodb/lib/bulk/unordered.js:473:9
    at handleCallback (/home/gaby/Desktop/BDD/Repositorio/bbdd2016/node_modules/mongoose/node_modules/mongodb/lib/utils.js:96:12)
    at resultHandler (/home/gaby/Desktop/BDD/Repositorio/bbdd2016/node_modules/mongoose/node_modules/mongodb/lib/bulk/unordered.js:420:5)
    at /home/gaby/Desktop/BDD/Repositorio/bbdd2016/node_modules/mongoose/node_modules/mongodb/node_modules/mongodb-core/lib/wireprotocol/2_4_support.js:544:17
    at process._tickCallback (node.js:448:13)
[2016-10-03 20:27:57.690] [INFO] middleware - Se actualizó el contador con id: empleados
[2016-10-03 20:29:26.866] [INFO] middleware - El empleado: 10 fue eliminado exitosamente
[2016-10-03 20:29:32.867] [INFO] middleware - El empleado: -1 fue eliminado exitosamente
[2016-10-03 20:29:38.451] [INFO] middleware - Empleado añadido con éxito
[2016-10-03 20:29:38.456] [INFO] middleware - Se actualizó el contador con id: empleados
[2016-10-03 20:29:47.014] [ERROR] middleware - Error al añadir el empleado con id: 10 el error es:
[2016-10-03 20:29:47.016] [ERROR] middleware - { [MongoError: E11000 duplicate key error index: api_dev.empleados.$_id_  dup key: { : 10 }]
  name: 'MongoError',
  message: 'E11000 duplicate key error index: api_dev.empleados.$_id_  dup key: { : 10 }',
  driver: true,
  code: 11000,
  index: 0,
  errmsg: 'E11000 duplicate key error index: api_dev.empleados.$_id_  dup key: { : 10 }',
  getOperation: [Function],
  toJSON: [Function],
  toString: [Function] }
WriteError({"code":11000,"index":0,"errmsg":"E11000 duplicate key error index: api_dev.empleados.$_id_  dup key: { : 10 }","op":{"_id":10,"__v":0}})
    at Function.MongoError.create (/home/gaby/Desktop/BDD/Repositorio/bbdd2016/node_modules/mongoose/node_modules/mongodb/node_modules/mongodb-core/lib/error.js:31:11)
    at toError (/home/gaby/Desktop/BDD/Repositorio/bbdd2016/node_modules/mongoose/node_modules/mongodb/lib/utils.js:114:22)
    at /home/gaby/Desktop/BDD/Repositorio/bbdd2016/node_modules/mongoose/node_modules/mongodb/lib/collection.js:620:23
    at handleCallback (/home/gaby/Desktop/BDD/Repositorio/bbdd2016/node_modules/mongoose/node_modules/mongodb/lib/utils.js:96:12)
    at /home/gaby/Desktop/BDD/Repositorio/bbdd2016/node_modules/mongoose/node_modules/mongodb/lib/bulk/unordered.js:473:9
    at handleCallback (/home/gaby/Desktop/BDD/Repositorio/bbdd2016/node_modules/mongoose/node_modules/mongodb/lib/utils.js:96:12)
    at resultHandler (/home/gaby/Desktop/BDD/Repositorio/bbdd2016/node_modules/mongoose/node_modules/mongodb/lib/bulk/unordered.js:420:5)
    at /home/gaby/Desktop/BDD/Repositorio/bbdd2016/node_modules/mongoose/node_modules/mongodb/node_modules/mongodb-core/lib/wireprotocol/2_4_support.js:544:17
    at process._tickCallback (node.js:448:13)
